[{
  "name": "User Authentication",
  "icon": "🔐",
  "endpoints": [
    {
      "path": "/api/auth/login",
      "method": "POST",
      "statusCode": 200,
      "contentType": "application/json",
      "response": 
    },
    {
      "path": "/api/auth/signup",
      "method": "POST",
      "statusCode": 201,
      "contentType": "application/json",
      "response": "{\n  \"success\": true,\n  \"message\": \"User registered successfully\",\n  \"user\": {\n    \"id\": 2,\n    \"email\": \"newuser@example.com\",\n    \"name\": \"Jane Smith\",\n    \"role\": \"user\"\n  }\n}"
    },
    {
      "path": "/api/auth/logout",
      "method": "POST",
      "statusCode": 200,
      "contentType": "application/json",
      "response": "{\n  \"success\": true,\n  \"message\": \"Logged out successfully\"\n}"
    },
    {
      "path": "/api/auth/refresh-token",
      "method": "POST",
      "statusCode": 200,
      "contentType": "application/json",
      "response": "{\n  \"success\": true,\n  \"token\": \"eyJhbGciOiJIUzI1NiIsInR5cCI6IkpXVCJ9.newtoken\",\n  \"expiresIn\": 3600\n}"
    },
    {
      "path": "/api/auth/forgot-password",
      "method": "POST",
      "statusCode": 200,
      "contentType": "application/json",
      "response": "{\n  \"success\": true,\n  \"message\": \"Password reset email sent\",\n  \"resetToken\": \"abc123xyz\"\n}"
    }
  ]
},
  {
    "name": "User Authentication",
    "icon": "🔐",
    "endpoints": [
      {
        "path": "/api/auth/login",
        "method": "POST",
        "statusCode": 200,
        "contentType": "application/json",
        "response": "{\n  \"success\": true,\n  \"token\": \"eyJhbGciOiJIUzI1NiIsInR5cCI6IkpXVCJ9...\",\n  \"user\": {\n    \"id\": 1,\n    \"email\": \"user@example.com\",\n    \"name\": \"John Doe\",\n    \"role\": \"user\"\n  },\n  \"expiresIn\": 3600\n}"
      },
      {
        "path": "/api/auth/signup",
        "method": "POST",
        "statusCode": 201,
        "contentType": "application/json",
        "response": "{\n  \"success\": true,\n  \"message\": \"User registered successfully\",\n  \"user\": {\n    \"id\": 2,\n    \"email\": \"newuser@example.com\",\n    \"name\": \"Jane Smith\",\n    \"role\": \"user\"\n  }\n}"
      },
      {
        "path": "/api/auth/logout",
        "method": "POST",
        "statusCode": 200,
        "contentType": "application/json",
        "response": "{\n  \"success\": true,\n  \"message\": \"Logged out successfully\"\n}"
      },
      {
        "path": "/api/auth/refresh-token",
        "method": "POST",
        "statusCode": 200,
        "contentType": "application/json",
        "response": "{\n  \"success\": true,\n  \"token\": \"eyJhbGciOiJIUzI1NiIsInR5cCI6IkpXVCJ9.newtoken\",\n  \"expiresIn\": 3600\n}"
      },
      {
        "path": "/api/auth/forgot-password",
        "method": "POST",
        "statusCode": 200,
        "contentType": "application/json",
        "response": "{\n  \"success\": true,\n  \"message\": \"Password reset email sent\",\n  \"resetToken\": \"abc123xyz\"\n}"
      }
    ]
  },
  {
    "name": "User Management",
    "icon": "👥",
    "endpoints": [
      {
        "path": "/api/users",
        "method": "GET",
        "statusCode": 200,
        "contentType": "application/json",
        "response": "{\n  \"users\": [\n    {\n      \"id\": 1,\n      \"name\": \"John Doe\",\n      \"email\": \"john@example.com\",\n      \"role\": \"admin\",\n      \"createdAt\": \"2024-01-15T10:30:00Z\"\n    },\n    {\n      \"id\": 2,\n      \"name\": \"Jane Smith\",\n      \"email\": \"jane@example.com\",\n      \"role\": \"user\",\n      \"createdAt\": \"2024-02-20T14:15:00Z\"\n    }\n  ],\n  \"total\": 2,\n  \"page\": 1,\n  \"limit\": 10\n}"
      },
      {
        "path": "/api/users/{id}",
        "method": "GET",
        "statusCode": 200,
        "contentType": "application/json",
        "response": "{\n  \"id\": 1,\n  \"name\": \"John Doe\",\n  \"email\": \"john@example.com\",\n  \"role\": \"admin\",\n  \"createdAt\": \"2024-01-15T10:30:00Z\",\n  \"lastLogin\": \"2024-11-14T09:00:00Z\",\n  \"profile\": {\n    \"avatar\": \"https://example.com/avatar.jpg\",\n    \"bio\": \"Software Developer\"\n  }\n}"
      },
      {
        "path": "/api/users",
        "method": "POST",
        "statusCode": 201,
        "contentType": "application/json",
        "response": "{\n  \"success\": true,\n  \"message\": \"User created successfully\",\n  \"user\": {\n    \"id\": 3,\n    \"name\": \"New User\",\n    \"email\": \"newuser@example.com\",\n    \"role\": \"user\",\n    \"createdAt\": \"2024-11-14T10:00:00Z\"\n  }\n}"
      },
      {
        "path": "/api/users/{id}",
        "method": "PUT",
        "statusCode": 200,
        "contentType": "application/json",
        "response": "{\n  \"success\": true,\n  \"message\": \"User updated successfully\",\n  \"user\": {\n    \"id\": 1,\n    \"name\": \"Updated Name\",\n    \"email\": \"updated@example.com\",\n    \"role\": \"admin\"\n  }\n}"
      },
      {
        "path": "/api/users/{id}",
        "method": "DELETE",
        "statusCode": 200,
        "contentType": "application/json",
        "response": "{\n  \"success\": true,\n  \"message\": \"User deleted successfully\"\n}"
      }
    ]
  },
  {
    "name": "Products",
    "icon": "📦",
    "endpoints": [
      {
        "path": "/api/products",
        "method": "GET",
        "statusCode": 200,
        "contentType": "application/json",
        "response": "{\n  \"products\": [\n    {\n      \"id\": 1,\n      \"name\": \"Laptop\",\n      \"description\": \"High-performance laptop\",\n      \"price\": 999.99,\n      \"category\": \"Electronics\",\n      \"stock\": 50,\n      \"rating\": 4.5\n    },\n    {\n      \"id\": 2,\n      \"name\": \"Wireless Mouse\",\n      \"description\": \"Ergonomic wireless mouse\",\n      \"price\": 29.99,\n      \"category\": \"Accessories\",\n      \"stock\": 200,\n      \"rating\": 4.2\n    }\n  ],\n  \"total\": 2,\n  \"page\": 1\n}"
      },
      {
        "path": "/api/products/{id}",
        "method": "GET",
        "statusCode": 200,
        "contentType": "application/json",
        "response": "{\n  \"id\": 1,\n  \"name\": \"Laptop\",\n  \"description\": \"High-performance laptop for professionals\",\n  \"price\": 999.99,\n  \"category\": \"Electronics\",\n  \"stock\": 50,\n  \"rating\": 4.5,\n  \"reviews\": 128,\n  \"images\": [\n    \"https://example.com/laptop1.jpg\",\n    \"https://example.com/laptop2.jpg\"\n  ],\n  \"specifications\": {\n    \"cpu\": \"Intel i7\",\n    \"ram\": \"16GB\",\n    \"storage\": \"512GB SSD\"\n  }\n}"
      },
      {
        "path": "/api/products",
        "method": "POST",
        "statusCode": 201,
        "contentType": "application/json",
        "response": "{\n  \"success\": true,\n  \"message\": \"Product created successfully\",\n  \"product\": {\n    \"id\": 3,\n    \"name\": \"Mechanical Keyboard\",\n    \"price\": 79.99,\n    \"category\": \"Accessories\",\n    \"stock\": 150\n  }\n}"
      },
      {
        "path": "/api/products/search",
        "method": "GET",
        "statusCode": 200,
        "contentType": "application/json",
        "response": "{\n  \"results\": [\n    {\n      \"id\": 1,\n      \"name\": \"Laptop\",\n      \"price\": 999.99,\n      \"relevance\": 0.95\n    }\n  ],\n  \"total\": 1,\n  \"query\": \"laptop\"\n}"
      }
    ]
  },
  {
    "name": "Orders",
    "icon": "🛒",
    "endpoints": [
      {
        "path": "/api/orders",
        "method": "GET",
        "statusCode": 200,
        "contentType": "application/json",
        "response": "{\n  \"orders\": [\n    {\n      \"id\": 1001,\n      \"userId\": 1,\n      \"total\": 1299.98,\n      \"status\": \"delivered\",\n      \"createdAt\": \"2024-01-20T14:30:00Z\",\n      \"deliveredAt\": \"2024-01-25T10:15:00Z\"\n    },\n    {\n      \"id\": 1002,\n      \"userId\": 2,\n      \"total\": 599.99,\n      \"status\": \"pending\",\n      \"createdAt\": \"2024-01-21T09:15:00Z\"\n    }\n  ],\n  \"total\": 2\n}"
      },
      {
        "path": "/api/orders/{id}",
        "method": "GET",
        "statusCode": 200,
        "contentType": "application/json",
        "response": "{\n  \"id\": 1001,\n  \"userId\": 1,\n  \"items\": [\n    {\n      \"productId\": 1,\n      \"name\": \"Laptop\",\n      \"quantity\": 1,\n      \"price\": 999.99,\n      \"subtotal\": 999.99\n    },\n    {\n      \"productId\": 2,\n      \"name\": \"Wireless Mouse\",\n      \"quantity\": 10,\n      \"price\": 29.99,\n      \"subtotal\": 299.90\n    }\n  ],\n  \"subtotal\": 1299.89,\n  \"tax\": 0,\n  \"shipping\": 0,\n  \"total\": 1299.89,\n  \"status\": \"delivered\",\n  \"shippingAddress\": {\n    \"street\": \"123 Main St\",\n    \"city\": \"New York\",\n    \"zipCode\": \"10001\"\n  }\n}"
      },
      {
        "path": "/api/orders",
        "method": "POST",
        "statusCode": 201,
        "contentType": "application/json",
        "response": "{\n  \"success\": true,\n  \"message\": \"Order created successfully\",\n  \"order\": {\n    \"id\": 1003,\n    \"total\": 799.99,\n    \"status\": \"pending\",\n    \"createdAt\": \"2024-11-14T10:30:00Z\"\n  }\n}"
      },
      {
        "path": "/api/orders/{id}/cancel",
        "method": "POST",
        "statusCode": 200,
        "contentType": "application/json",
        "response": "{\n  \"success\": true,\n  \"message\": \"Order cancelled successfully\",\n  \"orderId\": 1003,\n  \"refundAmount\": 799.99\n}"
      }
    ]
  },
  {
    "name": "Form Data",
    "icon": "📝",
    "endpoints": [
      {
        "path": "/api/contact",
        "method": "POST",
        "statusCode": 200,
        "contentType": "application/x-www-form-urlencoded",
        "response": "{\n  \"success\": true,\n  \"message\": \"Contact form submitted successfully\",\n  \"ticketId\": \"TKT-12345\"\n}"
      },
      {
        "path": "/api/upload",
        "method": "POST",
        "statusCode": 200,
        "contentType": "multipart/form-data",
        "response": "{\n  \"success\": true,\n  \"message\": \"File uploaded successfully\",\n  \"fileUrl\": \"https://example.com/uploads/file123.jpg\",\n  \"fileSize\": 2048576,\n  \"mimeType\": \"image/jpeg\"\n}"
      },
      {
        "path": "/api/newsletter/subscribe",
        "method": "POST",
        "statusCode": 200,
        "contentType": "application/x-www-form-urlencoded",
        "response": "{\n  \"success\": true,\n  \"message\": \"Successfully subscribed to newsletter\",\n  \"email\": \"user@example.com\"\n}"
      }
    ]
  },
  {
    "name": "Error Responses",
    "icon": "❌",
    "endpoints": [
      {
        "path": "/api/error/400",
        "method": "GET",
        "statusCode": 400,
        "contentType": "application/json",
        "response": "{\n  \"error\": true,\n  \"code\": 400,\n  \"message\": \"Bad Request\",\n  \"details\": \"Invalid request parameters\",\n  \"timestamp\": \"2024-11-14T10:00:00Z\"\n}"
      },
      {
        "path": "/api/error/401",
        "method": "GET",
        "statusCode": 401,
        "contentType": "application/json",
        "response": "{\n  \"error\": true,\n  \"code\": 401,\n  \"message\": \"Unauthorized\",\n  \"details\": \"Authentication required. Please provide valid credentials.\",\n  \"timestamp\": \"2024-11-14T10:00:00Z\"\n}"
      },
      {
        "path": "/api/error/403",
        "method": "GET",
        "statusCode": 403,
        "contentType": "application/json",
        "response": "{\n  \"error\": true,\n  \"code\": 403,\n  \"message\": \"Forbidden\",\n  \"details\": \"You don't have permission to access this resource\",\n  \"timestamp\": \"2024-11-14T10:00:00Z\"\n}"
      },
      {
        "path": "/api/error/404",
        "method": "GET",
        "statusCode": 404,
        "contentType": "application/json",
        "response": "{\n  \"error\": true,\n  \"code\": 404,\n  \"message\": \"Not Found\",\n  \"details\": \"The requested resource was not found\",\n  \"timestamp\": \"2024-11-14T10:00:00Z\"\n}"
      },
      {
        "path": "/api/error/500",
        "method": "GET",
        "statusCode": 500,
        "contentType": "application/json",
        "response": "{\n  \"error\": true,\n  \"code\": 500,\n  \"message\": \"Internal Server Error\",\n  \"details\": \"An unexpected error occurred on the server\",\n  \"timestamp\": \"2024-11-14T10:00:00Z\"\n}"
      },
      {
        "path": "/api/error/503",
        "method": "GET",
        "statusCode": 503,
        "contentType": "application/json",
        "response": "{\n  \"error\": true,\n  \"code\": 503,\n  \"message\": \"Service Unavailable\",\n  \"details\": \"The service is temporarily unavailable. Please try again later.\",\n  \"retryAfter\": 60,\n  \"timestamp\": \"2024-11-14T10:00:00Z\"\n}"
      }
    ]
  },
  {
    "name": "Pagination & Search",
    "icon": "🔍",
    "endpoints": [
      {
        "path": "/api/posts",
        "method": "GET",
        "statusCode": 200,
        "contentType": "application/json",
        "response": "{\n  \"posts\": [\n    {\n      \"id\": 1,\n      \"title\": \"Getting Started with APIs\",\n      \"author\": \"John Doe\",\n      \"published\": \"2024-01-15\",\n      \"views\": 1523\n    },\n    {\n      \"id\": 2,\n      \"title\": \"Advanced REST Patterns\",\n      \"author\": \"Jane Smith\",\n      \"published\": \"2024-02-20\",\n      \"views\": 892\n    }\n  ],\n  \"pagination\": {\n    \"page\": 1,\n    \"limit\": 10,\n    \"total\": 45,\n    \"pages\": 5,\n    \"hasNext\": true,\n    \"hasPrev\": false\n  }\n}"
      },
      {
        "path": "/api/search",
        "method": "GET",
        "statusCode": 200,
        "contentType": "application/json",
        "response": "{\n  \"query\": \"javascript\",\n  \"results\": [\n    {\n      \"id\": 1,\n      \"type\": \"article\",\n      \"title\": \"JavaScript Best Practices\",\n      \"relevance\": 0.95\n    },\n    {\n      \"id\": 2,\n      \"type\": \"tutorial\",\n      \"title\": \"Modern JavaScript Features\",\n      \"relevance\": 0.88\n    }\n  ],\n  \"total\": 28,\n  \"took\": 45\n}"
      }
    ]
  },
  {
    "name": "XML & Text",
    "icon": "📄",
    "endpoints": [
      {
        "path": "/api/data.xml",
        "method": "GET",
        "statusCode": 200,
        "contentType": "application/xml",
        "response": "<?xml version=\"1.0\" encoding=\"UTF-8\"?>\n<response>\n  <status>success</status>\n  <data>\n    <item id=\"1\">\n      <name>Product A</name>\n      <price>99.99</price>\n    </item>\n  </data>\n</response>"
      },
      {
        "path": "/api/plain",
        "method": "GET",
        "statusCode": 200,
        "contentType": "text/plain",
        "response": "This is a plain text response.\nYou can use this for simple text-based APIs.\nMultiple lines are supported."
      },
      {
        "path": "/api/html",
        "method": "GET",
        "statusCode": 200,
        "contentType": "text/html",
        "response": "<!DOCTYPE html>\n<html>\n<head>\n  <title>Mock Response</title>\n</head>\n<body>\n  <h1>Hello from Mock API</h1>\n  <p>This is an HTML response.</p>\n</body>\n</html>"
      }
    ]
  }
]

